{
  "project_info": {
    "project_number": "406704660819",
    "firebase_url": "https://testing-24cdd.firebaseio.com",
    "project_id": "testing-24cdd",
    "storage_bucket": "testing-24cdd.appspot.com"
  },
  "client": [
    {
      "client_info": {
        "mobilesdk_app_id": "1:406704660819:android:3e9771792b750207",
        "android_client_info": {
          "package_name": "com.arango.miguel.shareplace"
        }
      },
      "oauth_client": [
        {
          "client_id": "406704660819-3rilsk7p53s5a79jroc7ta70fun07m3n.apps.googleusercontent.com",
          "client_type": 1,
          "android_info": {
            "package_name": "com.arango.miguel.shareplace",
            "certificate_hash": "d952488cc81d0a1e7af8f0af5ae4359faed41416"
          }
        },
        {
          "client_id": "406704660819-7qi4nepvbrcjn4nv3ieqcq42g2qhsp4i.apps.googleusercontent.com",
          "client_type": 3
        }
      ],
      "api_key": [
        {
          "current_key": "AIzaSyCY2R_6jv5QW1TiUvHDWvBGMnARdjpXNY4"
        }
      ],
      "services": {
        "appinvite_service": {
          "other_platform_oauth_client": [
            {
              "client_id": "406704660819-7qi4nepvbrcjn4nv3ieqcq42g2qhsp4i.apps.googleusercontent.com",
              "client_type": 3
            }
          ]
        }
      }
    }
  ],
  "configuration_version": "1"
}